[gd_scene load_steps=2 format=2]

[ext_resource path="res://root.cs" type="Script" id=1]

[node name="root" type="Node"]
script = ExtResource( 1 )

[node name="Polygon2D" type="Polygon2D" parent="."]
position = Vector2( -103.034, 39.199 )
scale = Vector2( 1.40887, 0.878641 )
polygon = PoolVector2Array( 252, 166, 635, 117, 658, 310, 387, 323 )
