[gd_scene load_steps=9 format=2]

[ext_resource path="res://sound/coin.wav" type="AudioStream" id=1]
[ext_resource path="res://images/particle.png" type="Texture" id=2]

[sub_resource type="GDScript" id=1]
script/source = "extends Spatial

func _ready():
	$audio.play()
	$Particles.emitting = true
"

[sub_resource type="Gradient" id=2]
colors = PoolColorArray( 1, 1, 1, 1, 1, 0.972656, 0, 1 )

[sub_resource type="GradientTexture" id=3]
gradient = SubResource( 2 )

[sub_resource type="ParticlesMaterial" id=4]
emission_shape = 1
emission_sphere_radius = 0.5
gravity = Vector3( 0, 0, 0 )
initial_velocity = 2.0
color_ramp = SubResource( 3 )

[sub_resource type="SpatialMaterial" id=5]
flags_transparent = true
flags_unshaded = true
vertex_color_use_as_albedo = true
params_billboard_mode = 1
albedo_texture = ExtResource( 2 )

[sub_resource type="QuadMesh" id=6]
material = SubResource( 5 )
size = Vector2( 0.1, 0.1 )

[node name="coin_effect" type="Spatial"]
script = SubResource( 1 )

[node name="Particles" type="Particles" parent="."]
transform = Transform( -4.37114e-08, -1, 0, 1, -4.37114e-08, 0, 0, 0, 1, 0, 0, 0 )
emitting = false
amount = 20
lifetime = 0.5
one_shot = true
speed_scale = 2.0
explosiveness = 1.0
process_material = SubResource( 4 )
draw_pass_1 = SubResource( 6 )

[node name="audio" type="AudioStreamPlayer" parent="."]
stream = ExtResource( 1 )
