[gd_scene load_steps=7 format=2]

[ext_resource path="res://models/anamy_test.obj" type="ArrayMesh" id=1]

[sub_resource type="BoxShape" id=1]

[sub_resource type="Animation" id=2]
length = 0.001
tracks/0/type = "value"
tracks/0/path = NodePath("head:scale")
tracks/0/interp = 1
tracks/0/loop_wrap = true
tracks/0/imported = false
tracks/0/enabled = true
tracks/0/keys = {
"times": PoolRealArray( 0 ),
"transitions": PoolRealArray( 1 ),
"update": 0,
"values": [ Vector3( 1, 1, 1 ) ]
}

[sub_resource type="Animation" id=4]
resource_name = "atak"
tracks/0/type = "value"
tracks/0/path = NodePath("head:scale")
tracks/0/interp = 1
tracks/0/loop_wrap = true
tracks/0/imported = false
tracks/0/enabled = true
tracks/0/keys = {
"times": PoolRealArray( 0, 0.3, 0.5, 1 ),
"transitions": PoolRealArray( 1, 1, 1, 1 ),
"update": 0,
"values": [ Vector3( 1, 1, 1 ), Vector3( 1, 1.46828, 1 ), Vector3( 1, 0.504103, 1 ), Vector3( 1, 1, 1 ) ]
}

[sub_resource type="Animation" id=3]
resource_name = "idle"
loop = true
tracks/0/type = "value"
tracks/0/path = NodePath("head:scale")
tracks/0/interp = 2
tracks/0/loop_wrap = true
tracks/0/imported = false
tracks/0/enabled = true
tracks/0/keys = {
"times": PoolRealArray( 0, 0.5, 1 ),
"transitions": PoolRealArray( 1, 1, 1 ),
"update": 0,
"values": [ Vector3( 1, 1, 1 ), Vector3( 1.06553, 1.16708, 1 ), Vector3( 1, 1, 1 ) ]
}

[sub_resource type="Animation" id=5]
resource_name = "move"
tracks/0/type = "value"
tracks/0/path = NodePath("head:scale")
tracks/0/interp = 2
tracks/0/loop_wrap = true
tracks/0/imported = false
tracks/0/enabled = true
tracks/0/keys = {
"times": PoolRealArray( 0, 0.5, 1 ),
"transitions": PoolRealArray( 1, 1, 1 ),
"update": 0,
"values": [ Vector3( 1, 1, 1 ), Vector3( 1, 1.2062, 1.23147 ), Vector3( 1, 1, 1 ) ]
}

[node name="z_head" type="KinematicBody"]

[node name="head" type="MeshInstance" parent="."]
transform = Transform( 1, 0, 0, 0, 1, 0, 0, 0, 1, 0, 1.27062, 0 )
mesh = ExtResource( 1 )
material/0 = null
material/1 = null
material/2 = null
material/3 = null

[node name="body" type="CollisionShape" parent="."]
transform = Transform( 0.8, 0, 0, 0, 0.8, 0, 0, 0, 0.8, 0, 1.27062, 0 )
shape = SubResource( 1 )

[node name="anim" type="AnimationPlayer" parent="."]
autoplay = "idle"
anims/RESET = SubResource( 2 )
anims/atak = SubResource( 4 )
anims/idle = SubResource( 3 )
anims/move = SubResource( 5 )
