[gd_scene load_steps=5 format=2]

[ext_resource path="res://Player.gd" type="Script" id=1]

[sub_resource type="CubeMesh" id=4]

[sub_resource type="SpatialMaterial" id=2]
albedo_color = Color( 0.921569, 1, 0, 1 )

[sub_resource type="BoxShape" id=3]
extents = Vector3( 1, 1, 1.49929 )

[node name="Player" type="KinematicBody"]
script = ExtResource( 1 )

[node name="player_body" type="MeshInstance" parent="."]
transform = Transform( 0.6, 0, 0, 0, -2.62268e-08, -1.036, 0, 0.6, -4.5285e-08, 0, 0, 0 )
mesh = SubResource( 4 )
material/0 = SubResource( 2 )

[node name="CollisionShape" type="CollisionShape" parent="."]
transform = Transform( 0.6, 0, 0, 0, -2.62268e-08, -0.7, 0, 0.6, -3.0598e-08, 0, 0, 0 )
shape = SubResource( 3 )
