# Blender 3.4.1 MTL File: 'None'
# www.blender.org

newmtl Green
Ns 39.999996
Ka 1.000000 1.000000 1.000000
Kd 0.103878 0.145175 0.000000
Ks 0.400000 0.400000 0.400000
Ke 0.000000 0.000000 0.000000
Ni 1.450000
d 1.000000
illum 2

newmtl Pumpkin_material
Ns 39.999996
Ka 1.000000 1.000000 1.000000
Kd 0.672443 0.165132 0.001518
Ks 0.400000 0.400000 0.400000
Ke 0.000000 0.000000 0.000000
Ni 1.450000
d 1.000000
illum 2
