# Blender 3.4.1 MTL File: 'None'
# www.blender.org

newmtl Material
Ns 250.000000
Ka 1.000000 1.000000 1.000000
Kd 0.156305 0.156305 0.156305
Ks 0.500000 0.500000 0.500000
Ke 0.000000 0.000000 0.000000
Ni 1.450000
d 1.000000
illum 2

newmtl Material.001
Ns 250.000000
Ka 1.000000 1.000000 1.000000
Kd 0.282404 0.282404 0.282404
Ks 0.500000 0.500000 0.500000
Ke 0.000000 0.000000 0.000000
Ni 1.450000
d 1.000000
illum 2
