# Blender 3.4.1
# www.blender.org
mtllib Road.mtl
o Cube
v 1.000000 0.060000 -0.319026
v 1.000000 -0.060000 -0.319026
v 1.000000 0.060000 0.319026
v 1.000000 -0.060000 0.319026
v -1.043846 0.060000 -0.188388
v -1.043846 -0.060000 -0.188388
v -1.043846 0.030907 0.188388
v -1.043846 -0.060000 0.188388
v 0.600000 -0.060000 -0.319026
v 0.200000 -0.060000 -0.319026
v -0.200000 -0.060000 -0.319026
v -0.556154 -0.060000 -0.388967
v 0.600000 0.035982 0.319026
v 0.200000 0.060000 0.319026
v -0.200000 0.060000 0.319026
v -0.556154 0.060000 0.388967
v -0.556154 -0.060000 0.388967
v -0.200000 -0.060000 0.319026
v 0.200000 -0.060000 0.319026
v 0.600000 -0.060000 0.319026
v -0.556154 0.060000 -0.388967
v -0.200000 0.060000 -0.319026
v 0.200000 0.060000 -0.319026
v 0.600000 0.060000 -0.319026
v -1.043846 -0.060000 -0.062796
v -1.043846 -0.060000 0.062796
v 1.111496 0.057884 -0.106342
v 1.111496 0.057884 0.106342
v -1.043846 0.060000 0.062796
v -1.043846 0.060000 -0.062796
v 1.111496 -0.057884 0.106342
v 1.111496 -0.057884 -0.106342
v -0.556154 -0.060000 -0.129656
v -0.556154 -0.060000 0.129656
v -0.200000 -0.060000 -0.106342
v -0.200000 -0.060000 0.106342
v 0.200000 -0.060000 -0.106342
v 0.200000 -0.060000 0.106342
v 0.600000 -0.060000 -0.106342
v 0.600000 -0.060000 0.106342
v 0.600000 0.060000 -0.106342
v 0.600000 0.060000 0.106342
v 0.200000 0.060000 -0.106342
v 0.200000 0.060000 0.106342
v -0.200000 0.060000 -0.106342
v -0.200000 0.060000 0.106342
v -0.556154 0.060000 -0.129656
v -0.556154 0.101485 0.129656
vn -0.1198 0.9765 0.1791
vn -0.3804 -0.0000 0.9248
vn -1.0000 -0.0000 -0.0000
vn 0.0023 -1.0000 -0.0044
vn 0.8857 -0.0000 0.4643
vn -0.0000 -0.0000 -1.0000
vn -0.3804 -0.0000 -0.9248
vn 0.1927 -0.0000 -0.9813
vn -0.0000 -1.0000 -0.0000
vn -0.0000 -0.0000 1.0000
vn 0.1927 -0.0000 0.9813
vn -0.0240 0.9987 0.0451
vn 0.0300 0.9980 0.0563
vn -0.0000 1.0000 -0.0000
vn 0.0693 0.9938 0.0873
vn 0.0579 0.9945 -0.0874
vn 0.0023 1.0000 0.0044
vn 0.0041 1.0000 -0.0000
vn 0.8857 -0.0000 -0.4643
vn 1.0000 -0.0000 -0.0000
vn 0.0023 -1.0000 0.0044
vn 0.0041 -1.0000 -0.0000
vn -0.0422 0.9934 -0.1071
vt 0.625000 0.500000
vt 0.375000 0.500000
vt 0.625000 0.750000
vt 0.375000 0.750000
vt 0.625000 0.250000
vt 0.875000 0.500000
vt 0.375000 0.250000
vt 0.125000 0.500000
vt 0.875000 0.750000
vt 0.625000 1.000000
vt 0.625000 0.000000
vt 0.375000 1.000000
vt 0.125000 0.750000
vt 0.375000 0.000000
vt 0.375000 0.450000
vt 0.325000 0.500000
vt 0.375000 0.400000
vt 0.275000 0.500000
vt 0.375000 0.350000
vt 0.225000 0.500000
vt 0.375000 0.300000
vt 0.175000 0.500000
vt 0.625000 0.800000
vt 0.675000 0.750000
vt 0.625000 0.850000
vt 0.725000 0.750000
vt 0.625000 0.900000
vt 0.775000 0.750000
vt 0.625000 0.950000
vt 0.825000 0.750000
vt 0.175000 0.750000
vt 0.375000 0.950000
vt 0.225000 0.750000
vt 0.375000 0.900000
vt 0.275000 0.750000
vt 0.375000 0.850000
vt 0.325000 0.750000
vt 0.375000 0.800000
vt 0.625000 0.300000
vt 0.825000 0.500000
vt 0.625000 0.350000
vt 0.775000 0.500000
vt 0.625000 0.400000
vt 0.725000 0.500000
vt 0.625000 0.450000
vt 0.675000 0.500000
vt 0.125000 0.583333
vt 0.375000 0.166667
vt 0.125000 0.666667
vt 0.375000 0.083333
vt 0.625000 0.583333
vt 0.625000 0.666667
vt 0.625000 0.083333
vt 0.875000 0.666667
vt 0.625000 0.166667
vt 0.875000 0.583333
vt 0.375000 0.666667
vt 0.375000 0.583333
vt 0.175000 0.583333
vt 0.175000 0.666667
vt 0.225000 0.583333
vt 0.225000 0.666667
vt 0.275000 0.583333
vt 0.275000 0.666667
vt 0.325000 0.583333
vt 0.325000 0.666667
vt 0.675000 0.583333
vt 0.675000 0.666667
vt 0.725000 0.583333
vt 0.725000 0.666667
vt 0.775000 0.583333
vt 0.775000 0.666667
vt 0.825000 0.583333
vt 0.825000 0.666667
s 0
usemtl Material
f 48/74/1 29/54/1 7/9/1 16/30/1
f 17/32/2 16/29/2 7/10/2 8/12/2
f 25/48/3 30/55/3 5/5/3 6/7/3
f 40/66/4 31/57/4 4/4/4 20/37/4
f 31/57/5 28/52/5 3/3/5 4/4/5
f 9/15/6 24/45/6 1/1/6 2/2/6
f 6/7/7 5/5/7 21/39/7 12/21/7
f 12/21/8 21/39/8 22/41/8 11/19/8
f 11/19/6 22/41/6 23/43/6 10/17/6
f 10/17/6 23/43/6 24/45/6 9/15/6
f 26/49/9 34/60/9 17/31/9 8/13/9
f 34/60/9 36/62/9 18/33/9 17/31/9
f 36/62/9 38/64/9 19/35/9 18/33/9
f 38/64/9 40/66/9 20/37/9 19/35/9
f 4/4/10 3/3/10 13/23/10 20/38/10
f 20/38/10 13/23/10 14/25/10 19/36/10
f 19/36/10 14/25/10 15/27/10 18/34/10
f 18/34/11 15/27/11 16/29/11 17/32/11
f 28/52/12 42/68/12 13/24/12 3/3/12
f 42/68/13 44/70/13 14/26/13 13/24/13
f 44/70/14 46/72/14 15/28/14 14/26/14
f 46/72/15 48/74/15 16/30/15 15/28/15
f 22/42/14 21/40/14 47/73/14 45/71/14
f 45/71/16 47/73/16 48/74/16 46/72/16
f 23/44/14 22/42/14 45/71/14 43/69/14
f 43/69/14 45/71/14 46/72/14 44/70/14
f 24/46/14 23/44/14 43/69/14 41/67/14
f 41/67/14 43/69/14 44/70/14 42/68/14
f 1/1/17 24/46/17 41/67/17 27/51/17
f 27/51/18 41/67/18 42/68/18 28/52/18
f 10/18/9 9/16/9 39/65/9 37/63/9
f 37/63/9 39/65/9 40/66/9 38/64/9
f 11/20/9 10/18/9 37/63/9 35/61/9
f 35/61/9 37/63/9 38/64/9 36/62/9
f 12/22/9 11/20/9 35/61/9 33/59/9
f 33/59/9 35/61/9 36/62/9 34/60/9
f 6/8/9 12/22/9 33/59/9 25/47/9
f 25/47/9 33/59/9 34/60/9 26/49/9
f 2/2/19 1/1/19 27/51/19 32/58/19
f 32/58/20 27/51/20 28/52/20 31/57/20
f 9/16/21 2/2/21 32/58/21 39/65/21
f 39/65/22 32/58/22 31/57/22 40/66/22
f 8/14/3 7/11/3 29/53/3 26/50/3
f 26/50/3 29/53/3 30/55/3 25/48/3
f 21/40/14 5/6/14 30/56/14 47/73/14
f 47/73/23 30/56/23 29/54/23 48/74/23
o Cube.001
v -1.000000 0.060000 1.162122
v -1.000000 -0.060000 1.162122
v -1.000000 0.060000 0.524069
v -1.000000 -0.060000 0.524069
v 1.043846 0.060000 1.031483
v 1.043846 -0.060000 1.031483
v 1.043846 0.030907 0.654707
v 1.043846 -0.060000 0.654707
v -0.600000 -0.060000 1.162122
v -0.200000 -0.060000 1.255152
v 0.200000 -0.060000 1.162121
v 0.556154 -0.060000 1.143856
v -0.600000 0.035982 0.524069
v -0.200000 0.060000 0.524069
v 0.200000 0.060000 0.524069
v 0.556154 0.060000 0.524087
v 0.556154 -0.060000 0.524087
v 0.200000 -0.060000 0.524069
v -0.200000 -0.060000 0.524069
v -0.600000 -0.060000 0.524069
v 0.556154 0.060000 1.143856
v 0.200000 0.060000 1.162121
v -0.200000 0.060000 1.255152
v -0.600000 0.060000 1.162122
v 1.043846 -0.060000 0.905891
v 1.043846 -0.060000 0.780299
v -1.111496 0.057884 0.949438
v -1.111496 0.057884 0.736754
v 1.043846 0.060000 0.780299
v 1.043846 0.060000 0.905891
v -1.111496 -0.057884 0.736754
v -1.111496 -0.057884 0.949438
v 0.556154 -0.060000 0.972751
v 0.556154 -0.060000 0.713439
v 0.200000 -0.060000 0.949437
v 0.200000 -0.060000 0.736753
v -0.200000 -0.060000 0.949437
v -0.200000 -0.060000 0.736753
v -0.600000 -0.060000 0.949437
v -0.600000 -0.060000 0.736753
v -0.600000 0.086392 0.949437
v -0.600000 0.060000 0.736753
v -0.200000 0.060000 0.949437
v -0.200000 0.060000 0.736753
v 0.200000 0.076134 0.949437
v 0.200000 0.060000 0.736753
v 0.556154 0.060000 0.972751
v 0.556154 0.101485 0.713439
vn 0.1141 0.9694 -0.2172
vn 0.2587 -0.0000 -0.9660
vn 1.0000 -0.0000 -0.0000
vn -0.0023 -1.0000 0.0044
vn -0.8857 -0.0000 -0.4643
vn -0.0000 -0.0000 1.0000
vn 0.2245 -0.0000 0.9745
vn 0.0512 -0.0000 0.9987
vn 0.2265 -0.0000 0.9740
vn -0.2265 -0.0000 0.9740
vn -0.0000 -1.0000 -0.0000
vn -0.0000 -0.0000 -1.0000
vn 0.0240 0.9987 -0.0451
vn -0.0300 0.9980 -0.0563
vn -0.0000 1.0000 -0.0000
vn -0.0612 0.9929 -0.1024
vn 0.0223 0.9989 0.0420
vn -0.0355 0.9979 0.0536
vn -0.0165 0.9994 0.0311
vn -0.0201 0.9991 -0.0379
vn 0.0270 0.9983 0.0508
vn 0.0329 0.9975 -0.0619
vn -0.0312 0.9974 0.0651
vn -0.0299 0.9976 -0.0619
vn -0.8857 -0.0000 0.4643
vn -1.0000 -0.0000 -0.0000
vn -0.0023 -1.0000 -0.0044
vn -0.0041 -1.0000 -0.0000
vn 0.0422 0.9934 0.1071
vt 0.625000 0.500000
vt 0.375000 0.500000
vt 0.625000 0.750000
vt 0.375000 0.750000
vt 0.625000 0.250000
vt 0.875000 0.500000
vt 0.375000 0.250000
vt 0.125000 0.500000
vt 0.875000 0.750000
vt 0.625000 1.000000
vt 0.625000 0.000000
vt 0.375000 1.000000
vt 0.125000 0.750000
vt 0.375000 0.000000
vt 0.375000 0.450000
vt 0.325000 0.500000
vt 0.375000 0.400000
vt 0.275000 0.500000
vt 0.375000 0.350000
vt 0.225000 0.500000
vt 0.375000 0.300000
vt 0.175000 0.500000
vt 0.625000 0.800000
vt 0.675000 0.750000
vt 0.625000 0.850000
vt 0.725000 0.750000
vt 0.625000 0.900000
vt 0.775000 0.750000
vt 0.625000 0.950000
vt 0.825000 0.750000
vt 0.175000 0.750000
vt 0.375000 0.950000
vt 0.225000 0.750000
vt 0.375000 0.900000
vt 0.275000 0.750000
vt 0.375000 0.850000
vt 0.325000 0.750000
vt 0.375000 0.800000
vt 0.625000 0.300000
vt 0.825000 0.500000
vt 0.625000 0.350000
vt 0.775000 0.500000
vt 0.625000 0.400000
vt 0.725000 0.500000
vt 0.625000 0.450000
vt 0.675000 0.500000
vt 0.125000 0.583333
vt 0.375000 0.166667
vt 0.125000 0.666667
vt 0.375000 0.083333
vt 0.625000 0.583333
vt 0.625000 0.666667
vt 0.625000 0.083333
vt 0.875000 0.666667
vt 0.625000 0.166667
vt 0.875000 0.583333
vt 0.375000 0.666667
vt 0.375000 0.583333
vt 0.175000 0.583333
vt 0.175000 0.666667
vt 0.225000 0.583333
vt 0.225000 0.666667
vt 0.275000 0.583333
vt 0.275000 0.666667
vt 0.325000 0.583333
vt 0.325000 0.666667
vt 0.675000 0.583333
vt 0.675000 0.666667
vt 0.725000 0.583333
vt 0.725000 0.666667
vt 0.775000 0.583333
vt 0.775000 0.666667
vt 0.825000 0.583333
vt 0.825000 0.666667
s 0
usemtl Material.001
f 96/148/24 77/128/24 55/83/24 64/104/24
f 65/106/25 64/103/25 55/84/25 56/86/25
f 73/122/26 78/129/26 53/79/26 54/81/26
f 88/140/27 79/131/27 52/78/27 68/111/27
f 79/131/28 76/126/28 51/77/28 52/78/28
f 57/89/29 72/119/29 49/75/29 50/76/29
f 54/81/30 53/79/30 69/113/30 60/95/30
f 60/95/31 69/113/31 70/115/31 59/93/31
f 59/93/32 70/115/32 71/117/32 58/91/32
f 58/91/33 71/117/33 72/119/33 57/89/33
f 74/123/34 82/134/34 65/105/34 56/87/34
f 82/134/34 84/136/34 66/107/34 65/105/34
f 84/136/34 86/138/34 67/109/34 66/107/34
f 86/138/34 88/140/34 68/111/34 67/109/34
f 52/78/35 51/77/35 61/97/35 68/112/35
f 68/112/35 61/97/35 62/99/35 67/110/35
f 67/110/35 62/99/35 63/101/35 66/108/35
f 66/108/35 63/101/35 64/103/35 65/106/35
f 76/126/36 90/142/36 61/98/36 51/77/36
f 90/142/37 92/144/37 62/100/37 61/98/37
f 92/144/38 94/146/38 63/102/38 62/100/38
f 94/146/39 96/148/39 64/104/39 63/102/39
f 70/116/40 69/114/40 95/147/40 93/145/40
f 93/145/41 95/147/41 96/148/41 94/146/41
f 71/118/42 70/116/42 93/145/42 91/143/42
f 91/143/43 93/145/43 94/146/43 92/144/43
f 72/120/44 71/118/44 91/143/44 89/141/44
f 89/141/45 91/143/45 92/144/45 90/142/45
f 49/75/46 72/120/46 89/141/46 75/125/46
f 75/125/47 89/141/47 90/142/47 76/126/47
f 58/92/34 57/90/34 87/139/34 85/137/34
f 85/137/34 87/139/34 88/140/34 86/138/34
f 59/94/34 58/92/34 85/137/34 83/135/34
f 83/135/34 85/137/34 86/138/34 84/136/34
f 60/96/34 59/94/34 83/135/34 81/133/34
f 81/133/34 83/135/34 84/136/34 82/134/34
f 54/82/34 60/96/34 81/133/34 73/121/34
f 73/121/34 81/133/34 82/134/34 74/123/34
f 50/76/48 49/75/48 75/125/48 80/132/48
f 80/132/49 75/125/49 76/126/49 79/131/49
f 57/90/50 50/76/50 80/132/50 87/139/50
f 87/139/51 80/132/51 79/131/51 88/140/51
f 56/88/26 55/85/26 77/127/26 74/124/26
f 74/124/26 77/127/26 78/129/26 73/122/26
f 69/114/38 53/80/38 78/130/38 95/147/38
f 95/147/52 78/130/52 77/128/52 96/148/52
